[
  {
    "name": "TU Chemnitz",
    "description": "My university, go check it out!",
    "link": "https://www.tu-chemnitz.de/phil/politik/pf/professur/professur.php.en/",
    "icon": "/images/logo_tu.png",
    "tag": ""
  },
  {
    "name": "Hugo",
    "description": "The framework used to build this website",
    "link": "https://gohugo.io/",
    "icon": "https://d33wubrfki0l68.cloudfront.net/d7c79b5c53384a57cfcf5bfb1a3f6f009a058b0b/16f81/images/gopher-hero.svg",
    "tag": ""
  },
  {
    "name": "Digital Garden",
    "description": "The hugo theme this website is based on",
    "link": "https://github.com/apvarun/digital-garden-hugo-theme/",
    "icon": "/images/dg_logo.tiff",
    "tag": ""
  },
  {
    "name": "GitLab",
    "description": "Code hosting for this website",
    "link": "https://gitlab.com/felixgruenewald/website/",
    "icon": "https://cdn4.iconfinder.com/data/icons/logos-and-brands/512/144_Gitlab_logo_logos-512.png",
    "tag": ""
  }
]
